solid OpenSCAD_Model
  facet normal -1 0 0
    outer loop
      vertex 0 0 15
      vertex 0 3 0
      vertex 0 0 0
    endloop
  endfacet
  facet normal -1 0 0
    outer loop
      vertex 0 3 0
      vertex 0 0 15
      vertex 0 3 15.529
    endloop
  endfacet
  facet normal -0 0 1
    outer loop
      vertex 4 43 20
      vertex 7 28.3564 20
      vertex 7 43 20
    endloop
  endfacet
  facet normal 0 0 1
    outer loop
      vertex 7 28.3564 20
      vertex 4 43 20
      vertex 4 28.3564 20
    endloop
  endfacet
  facet normal 1 -0 0
    outer loop
      vertex 11 0 15
      vertex 11 3 0
      vertex 11 3 15.529
    endloop
  endfacet
  facet normal 1 0 0
    outer loop
      vertex 11 3 0
      vertex 11 0 15
      vertex 11 0 0
    endloop
  endfacet
  facet normal 0 0 -1
    outer loop
      vertex 11 0 0
      vertex 7 3 0
      vertex 11 3 0
    endloop
  endfacet
  facet normal 0 0 -1
    outer loop
      vertex 0 35 0
      vertex 11 35 0
      vertex 4 3 0
    endloop
  endfacet
  facet normal 0 0 -1
    outer loop
      vertex 11 0 0
      vertex 4 3 0
      vertex 7 3 0
    endloop
  endfacet
  facet normal 0 0 -1
    outer loop
      vertex 0 0 0
      vertex 4 3 0
      vertex 11 0 0
    endloop
  endfacet
  facet normal -0 0 -1
    outer loop
      vertex 4 3 0
      vertex 0 0 0
      vertex 0 3 0
    endloop
  endfacet
  facet normal 0 0 -1
    outer loop
      vertex 4 3 0
      vertex 11 35 0
      vertex 7 3 0
    endloop
  endfacet
  facet normal 0 0 -1
    outer loop
      vertex 11 35 0
      vertex 0 35 0
      vertex 7 43 0
    endloop
  endfacet
  facet normal -0 0 -1
    outer loop
      vertex 7 43 0
      vertex 0 35 0
      vertex 4 43 0
    endloop
  endfacet
  facet normal 0 -1 0
    outer loop
      vertex 0 0 0
      vertex 11 0 15
      vertex 0 0 15
    endloop
  endfacet
  facet normal 0 -1 -0
    outer loop
      vertex 11 0 15
      vertex 0 0 0
      vertex 11 0 0
    endloop
  endfacet
  facet normal 0 1 -0
    outer loop
      vertex 11 3 0
      vertex 7 3 15.529
      vertex 11 3 15.529
    endloop
  endfacet
  facet normal 0 1 0
    outer loop
      vertex 7 3 15.529
      vertex 11 3 0
      vertex 7 3 0
    endloop
  endfacet
  facet normal 0 1 -0
    outer loop
      vertex 4 3 0
      vertex 0 3 15.529
      vertex 4 3 15.529
    endloop
  endfacet
  facet normal 0 1 0
    outer loop
      vertex 0 3 15.529
      vertex 4 3 0
      vertex 0 3 0
    endloop
  endfacet
  facet normal -0.957755 -0.143803 0.249049
    outer loop
      vertex 1.0291 20.3381 18.5862
      vertex 0.722062 21.0287 17.8042
      vertex 1.27322 17.9973 18.1734
    endloop
  endfacet
  facet normal 0.961146 0.239062 0.138011
    outer loop
      vertex 7 43 20
      vertex 10.6462 37 5
      vertex 11 37.5981 1.5
    endloop
  endfacet
  facet normal 0.961243 0.238539 0.138243
    outer loop
      vertex 7 43 20
      vertex 10.6129 36.9829 5.26105
      vertex 10.6462 37 5
    endloop
  endfacet
  facet normal 0.961085 0.239401 0.137853
    outer loop
      vertex 7 43 20
      vertex 10.5888 36.9319 5.51764
      vertex 10.6129 36.9829 5.26105
    endloop
  endfacet
  facet normal 0.961188 0.238834 0.138116
    outer loop
      vertex 7 43 20
      vertex 10.5741 36.8478 5.76537
      vertex 10.5888 36.9319 5.51764
    endloop
  endfacet
  facet normal 0.961157 0.239007 0.138033
    outer loop
      vertex 7 43 20
      vertex 10.5692 36.732 6
      vertex 10.5741 36.8478 5.76537
    endloop
  endfacet
  facet normal 0.961149 0.239049 0.138013
    outer loop
      vertex 10.5692 36.732 6
      vertex 7 43 20
      vertex 10.7439 28.5842 18.896
    endloop
  endfacet
  facet normal 0.961293 0.238518 0.137932
    outer loop
      vertex 10.6879 36.9829 4.73895
      vertex 11 37.5981 1.5
      vertex 10.6462 37 5
    endloop
  endfacet
  facet normal 0.961223 0.238777 0.137975
    outer loop
      vertex 10.7374 36.9319 4.48236
      vertex 11 37.5981 1.5
      vertex 10.6879 36.9829 4.73895
    endloop
  endfacet
  facet normal 0.961134 0.239095 0.138038
    outer loop
      vertex 10.7939 36.8478 4.23463
      vertex 11 37.5981 1.5
      vertex 10.7374 36.9319 4.48236
    endloop
  endfacet
  facet normal 0.96114 0.239073 0.138033
    outer loop
      vertex 10.8564 36.732 4
      vertex 11 37.5981 1.5
      vertex 10.7939 36.8478 4.23463
    endloop
  endfacet
  facet normal 0.961117 0.239152 0.138058
    outer loop
      vertex 10.9238 36.5867 3.78248
      vertex 11 37.5981 1.5
      vertex 10.8564 36.732 4
    endloop
  endfacet
  facet normal 0.961198 0.238891 0.137945
    outer loop
      vertex 10.9949 36.4142 3.58579
      vertex 11 37.5981 1.5
      vertex 10.9238 36.5867 3.78248
    endloop
  endfacet
  facet normal 0.960578 0.240764 0.139007
    outer loop
      vertex 11 37.5981 1.5
      vertex 10.9949 36.4142 3.58579
      vertex 11 36.4007 3.57393
    endloop
  endfacet
  facet normal 0.983873 -0.178867 4.22518e-05
    outer loop
      vertex 9.72678 17.9973 18.1734
      vertex 10.6199 22.9094 15.6746
      vertex 10.2779 21.0287 17.8042
    endloop
  endfacet
  facet normal 0.98387 -0.178885 0
    outer loop
      vertex 7 3 0
      vertex 9.72678 17.9973 18.1734
      vertex 7 3 15.529
    endloop
  endfacet
  facet normal 0.98387 -0.178887 1.33934e-06
    outer loop
      vertex 9.72678 17.9973 18.1734
      vertex 7 3 0
      vertex 10.6199 22.9094 15.6746
    endloop
  endfacet
  facet normal 0.989743 -0.123718 -0.0714294
    outer loop
      vertex 7 3 0
      vertex 11 31.6912 5.73105
      vertex 10.6199 22.9094 15.6746
    endloop
  endfacet
  facet normal 0.989743 -0.123718 -0.0714281
    outer loop
      vertex 11 31.6912 5.73105
      vertex 7 3 0
      vertex 11 35 0
    endloop
  endfacet
  facet normal 0 1 -0
    outer loop
      vertex 7 43 0
      vertex 4 43 20
      vertex 7 43 20
    endloop
  endfacet
  facet normal 0 1 0
    outer loop
      vertex 4 43 20
      vertex 7 43 0
      vertex 4 43 0
    endloop
  endfacet
  facet normal 0.282839 -0 0.959167
    outer loop
      vertex 7 28.3564 20
      vertex 10.7439 28.5842 18.896
      vertex 7 43 20
    endloop
  endfacet
  facet normal 0.282837 2.87855e-05 0.959168
    outer loop
      vertex 10.7439 28.5842 18.896
      vertex 7 28.3564 20
      vertex 7.25269 27.9338 19.9255
    endloop
  endfacet
  facet normal -0.28284 0 0.959167
    outer loop
      vertex 0.256116 28.5842 18.896
      vertex 4 28.3564 20
      vertex 4 43 20
    endloop
  endfacet
  facet normal -0.282838 2.94829e-05 0.959168
    outer loop
      vertex 4 28.3564 20
      vertex 0.256116 28.5842 18.896
      vertex 3.74731 27.9338 19.9255
    endloop
  endfacet
  facet normal 0.707104 0.353552 -0.612376
    outer loop
      vertex 11 35 0
      vertex 7 43 0
      vertex 11 37.5981 1.5
    endloop
  endfacet
  facet normal 0.803657 0.595092 0
    outer loop
      vertex 11 37.5981 1.5
      vertex 7 43 0
      vertex 7 43 20
    endloop
  endfacet
  facet normal 1 -0 0
    outer loop
      vertex 11 36.2175 3.41329
      vertex 11 37.5981 1.5
      vertex 11 36.4007 3.57393
    endloop
  endfacet
  facet normal 1 -0 0
    outer loop
      vertex 11 36 3.26795
      vertex 11 37.5981 1.5
      vertex 11 36.2175 3.41329
    endloop
  endfacet
  facet normal 1 -0 0
    outer loop
      vertex 11 35.7654 3.15224
      vertex 11 37.5981 1.5
      vertex 11 36 3.26795
    endloop
  endfacet
  facet normal 1 -0 0
    outer loop
      vertex 11 35.5176 3.06815
      vertex 11 37.5981 1.5
      vertex 11 35.7654 3.15224
    endloop
  endfacet
  facet normal 1 0 0
    outer loop
      vertex 11 35 0
      vertex 11 35.5176 3.06815
      vertex 11 35.2611 3.01711
    endloop
  endfacet
  facet normal 1 0 0
    outer loop
      vertex 11 35 0
      vertex 11 35.2611 3.01711
      vertex 11 35 3
    endloop
  endfacet
  facet normal 1 0 0
    outer loop
      vertex 11 35.5176 3.06815
      vertex 11 35 0
      vertex 11 37.5981 1.5
    endloop
  endfacet
  facet normal 1 0 0
    outer loop
      vertex 11 34.7389 3.01711
      vertex 11 35 0
      vertex 11 35 3
    endloop
  endfacet
  facet normal 1 0 0
    outer loop
      vertex 11 34.4824 3.06815
      vertex 11 35 0
      vertex 11 34.7389 3.01711
    endloop
  endfacet
  facet normal 1 0 0
    outer loop
      vertex 11 34.2346 3.15224
      vertex 11 35 0
      vertex 11 34.4824 3.06815
    endloop
  endfacet
  facet normal 1 0 0
    outer loop
      vertex 11 34 3.26795
      vertex 11 35 0
      vertex 11 34.2346 3.15224
    endloop
  endfacet
  facet normal 1 0 0
    outer loop
      vertex 11 33.7825 3.41329
      vertex 11 35 0
      vertex 11 34 3.26795
    endloop
  endfacet
  facet normal 1 0 0
    outer loop
      vertex 11 33.5858 3.58579
      vertex 11 35 0
      vertex 11 33.7825 3.41329
    endloop
  endfacet
  facet normal 1 0 0
    outer loop
      vertex 11 35 0
      vertex 11 33.5858 3.58579
      vertex 11 31.6912 5.73105
    endloop
  endfacet
  facet normal 0.957766 -0.143798 0.249012
    outer loop
      vertex 9.9709 20.3381 18.5862
      vertex 9.72678 17.9973 18.1734
      vertex 10.2779 21.0287 17.8042
    endloop
  endfacet
  facet normal -0.961139 0.239085 0.138022
    outer loop
      vertex 0 37.5981 1.5
      vertex 0.312088 36.9829 4.73895
      vertex 0.353829 37 5
    endloop
  endfacet
  facet normal -0.961127 0.239128 0.138029
    outer loop
      vertex 0 37.5981 1.5
      vertex 0.26255 36.9319 4.48236
      vertex 0.312088 36.9829 4.73895
    endloop
  endfacet
  facet normal -0.961152 0.239039 0.138011
    outer loop
      vertex 0 37.5981 1.5
      vertex 0.206063 36.8478 4.23463
      vertex 0.26255 36.9319 4.48236
    endloop
  endfacet
  facet normal -0.96118 0.23894 0.137986
    outer loop
      vertex 0 37.5981 1.5
      vertex 0.143593 36.732 4
      vertex 0.206063 36.8478 4.23463
    endloop
  endfacet
  facet normal -0.961137 0.239087 0.138034
    outer loop
      vertex 0 37.5981 1.5
      vertex 0.0762098 36.5867 3.78248
      vertex 0.143593 36.732 4
    endloop
  endfacet
  facet normal -0.961151 0.239041 0.138014
    outer loop
      vertex 0 37.5981 1.5
      vertex 0.00506534 36.4142 3.58579
      vertex 0.0762098 36.5867 3.78248
    endloop
  endfacet
  facet normal -0.961081 0.239253 0.138135
    outer loop
      vertex 0.00506534 36.4142 3.58579
      vertex 0 37.5981 1.5
      vertex 0 36.4007 3.57393
    endloop
  endfacet
  facet normal -0.96115 0.239046 0.138016
    outer loop
      vertex 0.353829 37 5
      vertex 4 43 20
      vertex 0 37.5981 1.5
    endloop
  endfacet
  facet normal -0.961146 0.239065 0.138008
    outer loop
      vertex 0.387059 36.9829 5.26105
      vertex 4 43 20
      vertex 0.353829 37 5
    endloop
  endfacet
  facet normal -0.961138 0.23911 0.137987
    outer loop
      vertex 0.411209 36.9319 5.51764
      vertex 4 43 20
      vertex 0.387059 36.9829 5.26105
    endloop
  endfacet
  facet normal -0.961151 0.239039 0.13802
    outer loop
      vertex 0.425867 36.8478 5.76537
      vertex 4 43 20
      vertex 0.411209 36.9319 5.51764
    endloop
  endfacet
  facet normal -0.961166 0.238954 0.13806
    outer loop
      vertex 0.43078 36.732 6
      vertex 4 43 20
      vertex 0.425867 36.8478 5.76537
    endloop
  endfacet
  facet normal -0.961149 0.239048 0.138014
    outer loop
      vertex 4 43 20
      vertex 0.43078 36.732 6
      vertex 0.256116 28.5842 18.896
    endloop
  endfacet
  facet normal -0.803657 0.595092 0
    outer loop
      vertex 4 43 0
      vertex 0 37.5981 1.5
      vertex 4 43 20
    endloop
  endfacet
  facet normal -0.989743 -0.123718 -0.0714281
    outer loop
      vertex 4 3 0
      vertex 0 31.6912 5.73105
      vertex 0 35 0
    endloop
  endfacet
  facet normal -0.989743 -0.123718 -0.0714291
    outer loop
      vertex 0 31.6912 5.73105
      vertex 4 3 0
      vertex 0.380104 22.9094 15.6746
    endloop
  endfacet
  facet normal -0.98387 -0.178883 8.30474e-06
    outer loop
      vertex 0.380104 22.9094 15.6746
      vertex 1.27322 17.9973 18.1734
      vertex 0.722062 21.0287 17.8042
    endloop
  endfacet
  facet normal -0.98387 -0.178886 8.73672e-07
    outer loop
      vertex 4 3 0
      vertex 1.27322 17.9973 18.1734
      vertex 0.380104 22.9094 15.6746
    endloop
  endfacet
  facet normal -0.98387 -0.178885 0
    outer loop
      vertex 1.27322 17.9973 18.1734
      vertex 4 3 0
      vertex 4 3 15.529
    endloop
  endfacet
  facet normal -1 0 0
    outer loop
      vertex 0 37.5981 1.5
      vertex 0 36.2175 3.41329
      vertex 0 36.4007 3.57393
    endloop
  endfacet
  facet normal -1 0 0
    outer loop
      vertex 0 37.5981 1.5
      vertex 0 36 3.26795
      vertex 0 36.2175 3.41329
    endloop
  endfacet
  facet normal -1 0 0
    outer loop
      vertex 0 37.5981 1.5
      vertex 0 35.7654 3.15224
      vertex 0 36 3.26795
    endloop
  endfacet
  facet normal -1 0 0
    outer loop
      vertex 0 37.5981 1.5
      vertex 0 35.5176 3.06815
      vertex 0 35.7654 3.15224
    endloop
  endfacet
  facet normal -1 0 0
    outer loop
      vertex 0 35 0
      vertex 0 35.5176 3.06815
      vertex 0 37.5981 1.5
    endloop
  endfacet
  facet normal -1 0 0
    outer loop
      vertex 0 35.5176 3.06815
      vertex 0 35 0
      vertex 0 35.2611 3.01711
    endloop
  endfacet
  facet normal -1 0 0
    outer loop
      vertex 0 35 0
      vertex 0 35 3
      vertex 0 35.2611 3.01711
    endloop
  endfacet
  facet normal -1 0 0
    outer loop
      vertex 0 35 0
      vertex 0 34.7389 3.01711
      vertex 0 35 3
    endloop
  endfacet
  facet normal -1 0 0
    outer loop
      vertex 0 35 0
      vertex 0 34.4824 3.06815
      vertex 0 34.7389 3.01711
    endloop
  endfacet
  facet normal -1 0 0
    outer loop
      vertex 0 35 0
      vertex 0 34.2346 3.15224
      vertex 0 34.4824 3.06815
    endloop
  endfacet
  facet normal -1 0 0
    outer loop
      vertex 0 35 0
      vertex 0 34 3.26795
      vertex 0 34.2346 3.15224
    endloop
  endfacet
  facet normal -1 0 0
    outer loop
      vertex 0 35 0
      vertex 0 33.7825 3.41329
      vertex 0 34 3.26795
    endloop
  endfacet
  facet normal -1 0 0
    outer loop
      vertex 0 35 0
      vertex 0 33.5858 3.58579
      vertex 0 33.7825 3.41329
    endloop
  endfacet
  facet normal -1 -0 -0
    outer loop
      vertex 0 33.5858 3.58579
      vertex 0 35 0
      vertex 0 31.6912 5.73105
    endloop
  endfacet
  facet normal -0.707104 0.353552 -0.612376
    outer loop
      vertex 4 43 0
      vertex 0 35 0
      vertex 0 37.5981 1.5
    endloop
  endfacet
  facet normal 0 -0.19516 0.980771
    outer loop
      vertex 0 35.5176 3.06815
      vertex 11 35.2611 3.01711
      vertex 11 35.5176 3.06815
    endloop
  endfacet
  facet normal 0 -0.19516 0.980771
    outer loop
      vertex 11 35.2611 3.01711
      vertex 0 35.5176 3.06815
      vertex 0 35.2611 3.01711
    endloop
  endfacet
  facet normal 0 -0.896731 -0.442575
    outer loop
      vertex 0.425867 36.8478 5.76537
      vertex 10.5692 36.732 6
      vertex 0.43078 36.732 6
    endloop
  endfacet
  facet normal 0 -0.896731 -0.442575
    outer loop
      vertex 10.5692 36.732 6
      vertex 0.425867 36.8478 5.76537
      vertex 10.5741 36.8478 5.76537
    endloop
  endfacet
  facet normal 1.12534e-05 -0.845401 -0.534131
    outer loop
      vertex 0.43078 36.732 6
      vertex 3.74731 27.9338 19.9255
      vertex 0.256116 28.5842 18.896
    endloop
  endfacet
  facet normal 0 -0.845403 -0.53413
    outer loop
      vertex 3.74731 27.9338 19.9255
      vertex 0.43078 36.732 6
      vertex 7.25269 27.9338 19.9255
    endloop
  endfacet
  facet normal -0 -0.845403 -0.53413
    outer loop
      vertex 10.5692 36.732 6
      vertex 7.25269 27.9338 19.9255
      vertex 0.43078 36.732 6
    endloop
  endfacet
  facet normal -1.12533e-05 -0.845401 -0.534131
    outer loop
      vertex 7.25269 27.9338 19.9255
      vertex 10.5692 36.732 6
      vertex 10.7439 28.5842 18.896
    endloop
  endfacet
  facet normal 0 0.749552 0.661945
    outer loop
      vertex 10.2779 21.0287 17.8042
      vertex 1.0291 20.3381 18.5862
      vertex 9.9709 20.3381 18.5862
    endloop
  endfacet
  facet normal 0 0.749552 0.661945
    outer loop
      vertex 10.2779 21.0287 17.8042
      vertex 0.722062 21.0287 17.8042
      vertex 1.0291 20.3381 18.5862
    endloop
  endfacet
  facet normal 0 0.749551 0.661946
    outer loop
      vertex 10.6199 22.9094 15.6746
      vertex 0.722062 21.0287 17.8042
      vertex 10.2779 21.0287 17.8042
    endloop
  endfacet
  facet normal 0 0.749551 0.661946
    outer loop
      vertex 10.6199 22.9094 15.6746
      vertex 0.380104 22.9094 15.6746
      vertex 0.722062 21.0287 17.8042
    endloop
  endfacet
  facet normal 0 0.749536 0.661964
    outer loop
      vertex 11 31.6912 5.73105
      vertex 0.380104 22.9094 15.6746
      vertex 10.6199 22.9094 15.6746
    endloop
  endfacet
  facet normal 0 0.749536 0.661964
    outer loop
      vertex 11 31.6912 5.73105
      vertex 0 31.6912 5.73105
      vertex 0.380104 22.9094 15.6746
    endloop
  endfacet
  facet normal 0 0.749539 0.66196
    outer loop
      vertex 11 33.5858 3.58579
      vertex 0 31.6912 5.73105
      vertex 11 31.6912 5.73105
    endloop
  endfacet
  facet normal 0 0.749539 0.66196
    outer loop
      vertex 0 31.6912 5.73105
      vertex 11 33.5858 3.58579
      vertex 0 33.5858 3.58579
    endloop
  endfacet
  facet normal -0 0.321348 0.946961
    outer loop
      vertex 0 34.4824 3.06815
      vertex 11 34.2346 3.15224
      vertex 11 34.4824 3.06815
    endloop
  endfacet
  facet normal 0 0.321348 0.946961
    outer loop
      vertex 11 34.2346 3.15224
      vertex 0 34.4824 3.06815
      vertex 0 34.2346 3.15224
    endloop
  endfacet
  facet normal -0 0.0653902 0.99786
    outer loop
      vertex 0 35 3
      vertex 11 34.7389 3.01711
      vertex 11 35 3
    endloop
  endfacet
  facet normal 0 0.0653902 0.99786
    outer loop
      vertex 11 34.7389 3.01711
      vertex 0 35 3
      vertex 0 34.7389 3.01711
    endloop
  endfacet
  facet normal 0 -0.946922 0.321463
    outer loop
      vertex 0.206063 36.8478 4.23463
      vertex 10.7374 36.9319 4.48236
      vertex 0.26255 36.9319 4.48236
    endloop
  endfacet
  facet normal 0 -0.946922 0.321463
    outer loop
      vertex 10.7374 36.9319 4.48236
      vertex 0.206063 36.8478 4.23463
      vertex 10.7939 36.8478 4.23463
    endloop
  endfacet
  facet normal -0 0.659343 0.751842
    outer loop
      vertex 0 33.7825 3.41329
      vertex 11 33.5858 3.58579
      vertex 11 33.7825 3.41329
    endloop
  endfacet
  facet normal 0 0.659343 0.751842
    outer loop
      vertex 11 33.5858 3.58579
      vertex 0 33.7825 3.41329
      vertex 0 33.5858 3.58579
    endloop
  endfacet
  facet normal -0 0.19516 0.980771
    outer loop
      vertex 0 34.7389 3.01711
      vertex 11 34.4824 3.06815
      vertex 11 34.7389 3.01711
    endloop
  endfacet
  facet normal 0 0.19516 0.980771
    outer loop
      vertex 11 34.4824 3.06815
      vertex 0 34.7389 3.01711
      vertex 0 34.4824 3.06815
    endloop
  endfacet
  facet normal 0 -0.0653902 0.99786
    outer loop
      vertex 0 35.2611 3.01711
      vertex 11 35 3
      vertex 11 35.2611 3.01711
    endloop
  endfacet
  facet normal 0 -0.0653902 0.99786
    outer loop
      vertex 11 35 3
      vertex 0 35.2611 3.01711
      vertex 0 35 3
    endloop
  endfacet
  facet normal 0 -0.442344 0.896845
    outer loop
      vertex 0 36 3.26795
      vertex 11 35.7654 3.15224
      vertex 11 36 3.26795
    endloop
  endfacet
  facet normal 0 -0.442344 0.896845
    outer loop
      vertex 11 35.7654 3.15224
      vertex 0 36 3.26795
      vertex 0 35.7654 3.15224
    endloop
  endfacet
  facet normal 0 -0.831544 0.555459
    outer loop
      vertex 0.0762098 36.5867 3.78248
      vertex 10.8564 36.732 4
      vertex 0.143593 36.732 4
    endloop
  endfacet
  facet normal 0 -0.831544 0.555459
    outer loop
      vertex 10.8564 36.732 4
      vertex 0.0762098 36.5867 3.78248
      vertex 10.9238 36.5867 3.78248
    endloop
  endfacet
  facet normal 0.00330907 -0.659291 0.751881
    outer loop
      vertex 10.9949 36.4142 3.58579
      vertex 11 36.2175 3.41329
      vertex 11 36.4007 3.57393
    endloop
  endfacet
  facet normal 0 -0.659343 0.751842
    outer loop
      vertex 0.00506534 36.4142 3.58579
      vertex 11 36.2175 3.41329
      vertex 10.9949 36.4142 3.58579
    endloop
  endfacet
  facet normal -0.00333172 -0.659291 0.751881
    outer loop
      vertex 0 36.2175 3.41329
      vertex 0.00506534 36.4142 3.58579
      vertex 0 36.4007 3.57393
    endloop
  endfacet
  facet normal 0 -0.659343 0.751842
    outer loop
      vertex 0.00506534 36.4142 3.58579
      vertex 0 36.2175 3.41329
      vertex 11 36.2175 3.41329
    endloop
  endfacet
  facet normal 0 -0.980814 -0.194947
    outer loop
      vertex 0.387059 36.9829 5.26105
      vertex 10.5888 36.9319 5.51764
      vertex 0.411209 36.9319 5.51764
    endloop
  endfacet
  facet normal 0 -0.980814 -0.194947
    outer loop
      vertex 10.5888 36.9319 5.51764
      vertex 0.387059 36.9829 5.26105
      vertex 10.6129 36.9829 5.26105
    endloop
  endfacet
  facet normal 0 -0.997861 -0.0653646
    outer loop
      vertex 0.353829 37 5
      vertex 10.6129 36.9829 5.26105
      vertex 0.387059 36.9829 5.26105
    endloop
  endfacet
  facet normal 0 -0.997861 -0.0653646
    outer loop
      vertex 10.6129 36.9829 5.26105
      vertex 0.353829 37 5
      vertex 10.6462 37 5
    endloop
  endfacet
  facet normal 0 -0.946922 -0.321463
    outer loop
      vertex 0.411209 36.9319 5.51764
      vertex 10.5741 36.8478 5.76537
      vertex 0.425867 36.8478 5.76537
    endloop
  endfacet
  facet normal 0 -0.946922 -0.321463
    outer loop
      vertex 10.5741 36.8478 5.76537
      vertex 0.411209 36.9319 5.51764
      vertex 10.5888 36.9319 5.51764
    endloop
  endfacet
  facet normal 0 -0.980814 0.194947
    outer loop
      vertex 0.26255 36.9319 4.48236
      vertex 10.6879 36.9829 4.73895
      vertex 0.312088 36.9829 4.73895
    endloop
  endfacet
  facet normal 0 -0.980814 0.194947
    outer loop
      vertex 10.6879 36.9829 4.73895
      vertex 0.26255 36.9319 4.48236
      vertex 10.7374 36.9319 4.48236
    endloop
  endfacet
  facet normal 0 -0.321348 0.946961
    outer loop
      vertex 0 35.7654 3.15224
      vertex 11 35.5176 3.06815
      vertex 11 35.7654 3.15224
    endloop
  endfacet
  facet normal 0 -0.321348 0.946961
    outer loop
      vertex 11 35.5176 3.06815
      vertex 0 35.7654 3.15224
      vertex 0 35.5176 3.06815
    endloop
  endfacet
  facet normal 0 -0.5556 0.83145
    outer loop
      vertex 0 36.2175 3.41329
      vertex 11 36 3.26795
      vertex 11 36.2175 3.41329
    endloop
  endfacet
  facet normal 0 -0.5556 0.83145
    outer loop
      vertex 11 36 3.26795
      vertex 0 36.2175 3.41329
      vertex 0 36 3.26795
    endloop
  endfacet
  facet normal 0 -0.896731 0.442575
    outer loop
      vertex 0.143593 36.732 4
      vertex 10.7939 36.8478 4.23463
      vertex 0.206063 36.8478 4.23463
    endloop
  endfacet
  facet normal 0 -0.896731 0.442575
    outer loop
      vertex 10.7939 36.8478 4.23463
      vertex 0.143593 36.732 4
      vertex 10.8564 36.732 4
    endloop
  endfacet
  facet normal 0 -0.751826 0.659362
    outer loop
      vertex 0.00506534 36.4142 3.58579
      vertex 10.9238 36.5867 3.78248
      vertex 0.0762098 36.5867 3.78248
    endloop
  endfacet
  facet normal 0 -0.751826 0.659362
    outer loop
      vertex 10.9238 36.5867 3.78248
      vertex 0.00506534 36.4142 3.58579
      vertex 10.9949 36.4142 3.58579
    endloop
  endfacet
  facet normal 0 -0.997861 0.0653646
    outer loop
      vertex 0.312088 36.9829 4.73895
      vertex 10.6462 37 5
      vertex 0.353829 37 5
    endloop
  endfacet
  facet normal 0 -0.997861 0.0653646
    outer loop
      vertex 10.6462 37 5
      vertex 0.312088 36.9829 4.73895
      vertex 10.6879 36.9829 4.73895
    endloop
  endfacet
  facet normal -0 0.442344 0.896845
    outer loop
      vertex 0 34.2346 3.15224
      vertex 11 34 3.26795
      vertex 11 34.2346 3.15224
    endloop
  endfacet
  facet normal 0 0.442344 0.896845
    outer loop
      vertex 11 34 3.26795
      vertex 0 34.2346 3.15224
      vertex 0 34 3.26795
    endloop
  endfacet
  facet normal -0 0.5556 0.83145
    outer loop
      vertex 0 34 3.26795
      vertex 11 33.7825 3.41329
      vertex 11 34 3.26795
    endloop
  endfacet
  facet normal 0 0.5556 0.83145
    outer loop
      vertex 11 33.7825 3.41329
      vertex 0 34 3.26795
      vertex 0 33.7825 3.41329
    endloop
  endfacet
  facet normal 0 -0.17367 0.984804
    outer loop
      vertex 1.27322 17.9973 18.1734
      vertex 9.72678 17.9973 18.1734
      vertex 9.9709 20.3381 18.5862
    endloop
  endfacet
  facet normal 0 -0.173646 0.984808
    outer loop
      vertex 9.72678 17.9973 18.1734
      vertex 1.27322 17.9973 18.1734
      vertex 7 3 15.529
    endloop
  endfacet
  facet normal 0 -0.173646 0.984808
    outer loop
      vertex 7 3 15.529
      vertex 1.27322 17.9973 18.1734
      vertex 4 3 15.529
    endloop
  endfacet
  facet normal 0 -0.17367 0.984804
    outer loop
      vertex 1.27322 17.9973 18.1734
      vertex 9.9709 20.3381 18.5862
      vertex 1.0291 20.3381 18.5862
    endloop
  endfacet
  facet normal 0 -0.173654 0.984807
    outer loop
      vertex 7 3 15.529
      vertex 11 0 15
      vertex 11 3 15.529
    endloop
  endfacet
  facet normal 0 -0.173654 0.984807
    outer loop
      vertex 4 3 15.529
      vertex 11 0 15
      vertex 7 3 15.529
    endloop
  endfacet
  facet normal 0 -0.173654 0.984807
    outer loop
      vertex 0 0 15
      vertex 4 3 15.529
      vertex 0 3 15.529
    endloop
  endfacet
  facet normal 0 -0.173654 0.984807
    outer loop
      vertex 4 3 15.529
      vertex 0 0 15
      vertex 11 0 15
    endloop
  endfacet
  facet normal 0 -0.173613 0.984814
    outer loop
      vertex 4 28.3564 20
      vertex 7.25269 27.9338 19.9255
      vertex 7 28.3564 20
    endloop
  endfacet
  facet normal 0 -0.173613 0.984814
    outer loop
      vertex 7.25269 27.9338 19.9255
      vertex 4 28.3564 20
      vertex 3.74731 27.9338 19.9255
    endloop
  endfacet
endsolid OpenSCAD_Model
