solid OpenSCAD_Model
  facet normal 0 1 0
    outer loop
      vertex 23.8125 4.7 91.1891
      vertex 0.0544968 4.7 77.472
      vertex 0.00308323 4.7 77.5018
    endloop
  endfacet
  facet normal 0 1 0
    outer loop
      vertex -0.00301838 4.7 132.498
      vertex -23.8124 4.7 118.752
      vertex -23.8125 4.7 118.811
    endloop
  endfacet
  facet normal 0 1 0
    outer loop
      vertex 23.8157 4.7 118.75
      vertex -0.00301838 4.7 132.498
      vertex 0 4.7 132.5
    endloop
  endfacet
  facet normal 0 1 0
    outer loop
      vertex 23.8157 4.7 118.75
      vertex -23.8124 4.7 118.752
      vertex -0.00301838 4.7 132.498
    endloop
  endfacet
  facet normal 0 1 -0
    outer loop
      vertex 23.8124 4.7 91.2481
      vertex -23.8124 4.7 118.752
      vertex 23.8157 4.7 118.75
    endloop
  endfacet
  facet normal 0 1 0
    outer loop
      vertex 23.8124 4.7 91.2481
      vertex 23.8157 4.7 118.75
      vertex 23.8157 4.7 91.25
    endloop
  endfacet
  facet normal -0 1 0
    outer loop
      vertex -23.8157 4.7 91.25
      vertex -23.8124 4.7 118.752
      vertex 23.8124 4.7 91.2481
    endloop
  endfacet
  facet normal 0 1 0
    outer loop
      vertex -23.8124 4.7 118.752
      vertex -23.8157 4.7 91.25
      vertex -23.8157 4.7 118.75
    endloop
  endfacet
  facet normal 0 1 0
    outer loop
      vertex 0.00308323 4.7 77.5018
      vertex 23.8124 4.7 91.2481
      vertex 23.8125 4.7 91.1891
    endloop
  endfacet
  facet normal 0 1 0
    outer loop
      vertex 23.8124 4.7 91.2481
      vertex 0.00308323 4.7 77.5018
      vertex -23.8157 4.7 91.25
    endloop
  endfacet
  facet normal 0 1 0
    outer loop
      vertex -23.8157 4.7 91.25
      vertex 0.00308323 4.7 77.5018
      vertex 0 4.7 77.5
    endloop
  endfacet
  facet normal 0 1 0
    outer loop
      vertex -0.0543661 4.7 132.528
      vertex -0.00301838 4.7 132.498
      vertex -23.8125 4.7 118.811
    endloop
  endfacet
  facet normal 0 -1 0
    outer loop
      vertex 11.9194 -6.3 115.547
      vertex 14.6844 -6.3 119.158
      vertex 11.8567 -6.3 120.759
    endloop
  endfacet
  facet normal 0 -1 -0
    outer loop
      vertex 14.6844 -6.3 119.158
      vertex 11.9194 -6.3 115.547
      vertex 14.6844 -6.3 114.001
    endloop
  endfacet
  facet normal 0 -1 0
    outer loop
      vertex 4.57914 -6.3 118.872
      vertex 7.58825 -6.3 123.234
      vertex 4.58853 -6.3 124.925
    endloop
  endfacet
  facet normal 0 -1 0
    outer loop
      vertex 7.58825 -6.3 123.234
      vertex 4.57914 -6.3 118.872
      vertex 7.5832 -6.3 117.58
    endloop
  endfacet
  facet normal 0 -1 -0
    outer loop
      vertex -0.0543661 -6.3 132.528
      vertex -4.19946 -6.3 124.925
      vertex 0.181366 -6.3 127.281
    endloop
  endfacet
  facet normal 0 -1 0
    outer loop
      vertex -0.0543661 -6.3 132.528
      vertex -7.24005 -6.3 123.286
      vertex -4.19946 -6.3 124.925
    endloop
  endfacet
  facet normal 0 -1 0
    outer loop
      vertex -0.0543661 -6.3 132.528
      vertex -11.4704 -6.3 120.855
      vertex -7.24005 -6.3 123.286
    endloop
  endfacet
  facet normal 0 -1 0
    outer loop
      vertex -23.8125 -6.3 118.811
      vertex -11.4704 -6.3 120.855
      vertex -0.0543661 -6.3 132.528
    endloop
  endfacet
  facet normal 0 -1 0
    outer loop
      vertex -11.4704 -6.3 120.855
      vertex -23.8125 -6.3 118.811
      vertex -14.4198 -6.3 119.228
    endloop
  endfacet
  facet normal 0 -1 0
    outer loop
      vertex -23.8125 -6.3 118.811
      vertex -19.0429 -6.3 116.508
      vertex -14.4198 -6.3 119.228
    endloop
  endfacet
  facet normal 0 -1 0
    outer loop
      vertex -19.0429 -6.3 116.508
      vertex -18.9224 -6.3 94.3437
      vertex -18.9655 -6.3 116.503
    endloop
  endfacet
  facet normal 0 -1 0
    outer loop
      vertex -23.8125 -6.3 118.811
      vertex -18.9224 -6.3 94.3437
      vertex -19.0429 -6.3 116.508
    endloop
  endfacet
  facet normal 0 -1 0
    outer loop
      vertex -23.7582 -6.3 91.283
      vertex -18.9224 -6.3 94.3437
      vertex -23.8125 -6.3 118.811
    endloop
  endfacet
  facet normal 0 -1 0
    outer loop
      vertex -23.7582 -6.3 91.283
      vertex 0.245528 -6.3 83.2282
      vertex -18.9224 -6.3 94.3437
    endloop
  endfacet
  facet normal -0 -1 0
    outer loop
      vertex 0.245528 -6.3 83.2282
      vertex -23.7582 -6.3 91.283
      vertex 0.0544968 -6.3 77.472
    endloop
  endfacet
  facet normal 0 -1 0
    outer loop
      vertex 4.58853 -6.3 124.925
      vertex -0.0543661 -6.3 132.528
      vertex 0.181366 -6.3 127.281
    endloop
  endfacet
  facet normal 0 -1 0
    outer loop
      vertex 7.58825 -6.3 123.234
      vertex -0.0543661 -6.3 132.528
      vertex 4.58853 -6.3 124.925
    endloop
  endfacet
  facet normal 0 -1 0
    outer loop
      vertex 11.8567 -6.3 120.759
      vertex -0.0543661 -6.3 132.528
      vertex 7.58825 -6.3 123.234
    endloop
  endfacet
  facet normal 0 -1 0
    outer loop
      vertex 23.758 -6.3 118.717
      vertex 11.8567 -6.3 120.759
      vertex 14.6844 -6.3 119.158
    endloop
  endfacet
  facet normal 0 -1 0
    outer loop
      vertex 11.8567 -6.3 120.759
      vertex 23.758 -6.3 118.717
      vertex -0.0543661 -6.3 132.528
    endloop
  endfacet
  facet normal 0 -1 0
    outer loop
      vertex 19.3601 -6.3 116.472
      vertex 23.758 -6.3 118.717
      vertex 14.6844 -6.3 119.158
    endloop
  endfacet
  facet normal 0 -1 0
    outer loop
      vertex 19.4106 -6.3 94.3124
      vertex 23.758 -6.3 118.717
      vertex 19.3601 -6.3 116.472
    endloop
  endfacet
  facet normal 0 -1 0
    outer loop
      vertex 19.4106 -6.3 94.3124
      vertex 23.8125 -6.3 91.1891
      vertex 23.758 -6.3 118.717
    endloop
  endfacet
  facet normal 0 -1 0
    outer loop
      vertex 0.245528 -6.3 83.2282
      vertex 23.8125 -6.3 91.1891
      vertex 19.4106 -6.3 94.3124
    endloop
  endfacet
  facet normal 0 -1 0
    outer loop
      vertex 23.8125 -6.3 91.1891
      vertex 0.245528 -6.3 83.2282
      vertex 0.0544968 -6.3 77.472
    endloop
  endfacet
  facet normal 0 -1 0
    outer loop
      vertex -7.24005 -6.3 123.286
      vertex -4.18928 -6.3 118.872
      vertex -4.19946 -6.3 124.925
    endloop
  endfacet
  facet normal -0 -1 0
    outer loop
      vertex -4.18928 -6.3 118.872
      vertex -7.24005 -6.3 123.286
      vertex -7.20395 -6.3 117.58
    endloop
  endfacet
  facet normal 0 -1 0
    outer loop
      vertex -14.4198 -6.3 119.228
      vertex -11.5716 -6.3 115.547
      vertex -11.4704 -6.3 120.855
    endloop
  endfacet
  facet normal -0 -1 0
    outer loop
      vertex -11.5716 -6.3 115.547
      vertex -14.4198 -6.3 119.228
      vertex -14.4198 -6.3 114.001
    endloop
  endfacet
  facet normal 0 -1 0
    outer loop
      vertex -13.626 -6.3 96.5748
      vertex -9.6573 -6.3 103.361
      vertex -13.626 -6.3 110.157
    endloop
  endfacet
  facet normal 0 -1 -0
    outer loop
      vertex -9.6573 -6.3 103.361
      vertex -13.626 -6.3 96.5748
      vertex -9.6573 -6.3 98.597
    endloop
  endfacet
  facet normal 0 -1 0
    outer loop
      vertex -1.77178 -6.3 90.0435
      vertex -9.6573 -6.3 98.597
      vertex -13.626 -6.3 96.5748
    endloop
  endfacet
  facet normal 0 -1 0
    outer loop
      vertex -9.6573 -6.3 98.597
      vertex -1.77178 -6.3 90.0435
      vertex 0.132285 -6.3 93.3183
    endloop
  endfacet
  facet normal 0 -1 0
    outer loop
      vertex -9.6573 -6.3 103.361
      vertex 0.132285 -6.3 102.534
      vertex -13.626 -6.3 110.157
    endloop
  endfacet
  facet normal -0 -1 -0
    outer loop
      vertex 0.132285 -6.3 102.534
      vertex -9.6573 -6.3 103.361
      vertex 0.132285 -6.3 98.0354
    endloop
  endfacet
  facet normal 0 -1 0
    outer loop
      vertex 0.132285 -6.3 102.534
      vertex 9.92185 -6.3 103.361
      vertex 13.8906 -6.3 110.157
    endloop
  endfacet
  facet normal 0 -1 0
    outer loop
      vertex 9.92185 -6.3 103.361
      vertex 0.132285 -6.3 102.534
      vertex 0.132285 -6.3 98.0354
    endloop
  endfacet
  facet normal 0 -1 0
    outer loop
      vertex 13.8906 -6.3 96.5748
      vertex 9.92185 -6.3 103.361
      vertex 9.92185 -6.3 98.597
    endloop
  endfacet
  facet normal 0 -1 0
    outer loop
      vertex 9.92185 -6.3 103.361
      vertex 13.8906 -6.3 96.5748
      vertex 13.8906 -6.3 110.157
    endloop
  endfacet
  facet normal 0 -1 0
    outer loop
      vertex 2.07036 -6.3 90.0435
      vertex 9.92185 -6.3 98.597
      vertex 0.132285 -6.3 93.3183
    endloop
  endfacet
  facet normal 0 -1 0
    outer loop
      vertex 0.115883 -6.3 89.0423
      vertex 0.132285 -6.3 93.3183
      vertex -1.77178 -6.3 90.0435
    endloop
  endfacet
  facet normal 0 -1 -0
    outer loop
      vertex 9.92185 -6.3 98.597
      vertex 2.07036 -6.3 90.0435
      vertex 13.8906 -6.3 96.5748
    endloop
  endfacet
  facet normal 0 -1 -0
    outer loop
      vertex 0.132285 -6.3 93.3183
      vertex 0.115883 -6.3 89.0423
      vertex 2.07036 -6.3 90.0435
    endloop
  endfacet
  facet normal 0.999998 -0 0.00198042
    outer loop
      vertex 23.758 -6.3 118.717
      vertex 23.8124 1.4 91.2481
      vertex 23.758 1.4 118.717
    endloop
  endfacet
  facet normal 0.999998 -2.18295e-06 0.00197981
    outer loop
      vertex 23.8125 -6.3 91.1891
      vertex 23.8124 1.4 91.2481
      vertex 23.758 -6.3 118.717
    endloop
  endfacet
  facet normal 0.999999 -0 0.00169491
    outer loop
      vertex 23.8124 1.4 91.2481
      vertex 23.8125 4.7 91.1891
      vertex 23.8124 4.7 91.2481
    endloop
  endfacet
  facet normal 0.999999 0 0.00169491
    outer loop
      vertex 23.8125 4.7 91.1891
      vertex 23.8124 1.4 91.2481
      vertex 23.8125 -6.3 91.1891
    endloop
  endfacet
  facet normal 0.501707 -0 0.865037
    outer loop
      vertex 23.758 -6.3 118.717
      vertex 23.758 1.4 118.717
      vertex -0.00301838 1.4 132.498
    endloop
  endfacet
  facet normal 0.501713 2.45685e-05 0.865034
    outer loop
      vertex 23.758 -6.3 118.717
      vertex -0.00301838 1.4 132.498
      vertex -0.0543661 -6.3 132.528
    endloop
  endfacet
  facet normal 0.504463 0 0.863434
    outer loop
      vertex -0.0543661 4.7 132.528
      vertex -0.00301838 1.4 132.498
      vertex -0.00301838 4.7 132.498
    endloop
  endfacet
  facet normal 0.504463 0 0.863434
    outer loop
      vertex -0.00301838 1.4 132.498
      vertex -0.0543661 4.7 132.528
      vertex -0.0543661 -6.3 132.528
    endloop
  endfacet
  facet normal -0.500006 0 0.866022
    outer loop
      vertex -23.8125 4.7 118.811
      vertex -0.0543661 -6.3 132.528
      vertex -0.0543661 4.7 132.528
    endloop
  endfacet
  facet normal -0.500006 0 0.866022
    outer loop
      vertex -0.0543661 -6.3 132.528
      vertex -23.8125 4.7 118.811
      vertex -23.8125 -6.3 118.811
    endloop
  endfacet
  facet normal -0.999999 0 -0.00169491
    outer loop
      vertex -23.8124 1.4 118.752
      vertex -23.8125 4.7 118.811
      vertex -23.8124 4.7 118.752
    endloop
  endfacet
  facet normal -0.999999 -0 -0.00169491
    outer loop
      vertex -23.8125 4.7 118.811
      vertex -23.8124 1.4 118.752
      vertex -23.8125 -6.3 118.811
    endloop
  endfacet
  facet normal -0.999998 -0 -0.00197313
    outer loop
      vertex -23.7582 1.4 91.283
      vertex -23.7582 -6.3 91.283
      vertex -23.8124 1.4 118.752
    endloop
  endfacet
  facet normal -0.999998 -2.12723e-06 -0.00197253
    outer loop
      vertex -23.8124 1.4 118.752
      vertex -23.7582 -6.3 91.283
      vertex -23.8125 -6.3 118.811
    endloop
  endfacet
  facet normal -0.501709 -0 -0.865036
    outer loop
      vertex -23.7582 1.4 91.283
      vertex -4.30429 0.00417108 80
      vertex -23.7582 -6.3 91.283
    endloop
  endfacet
  facet normal -0.501709 0 -0.865036
    outer loop
      vertex -4.30429 0.00417108 80
      vertex -23.7582 1.4 91.283
      vertex -4.30429 1.4 80
    endloop
  endfacet
  facet normal -0.501703 -5.5107e-05 -0.86504
    outer loop
      vertex 0.0544968 -6.3 77.472
      vertex -3 -5.69615 79.2435
      vertex 0.0504648 -5.69615 77.4743
    endloop
  endfacet
  facet normal -0.50171 6.13278e-06 -0.865036
    outer loop
      vertex -3 -5.69615 79.2435
      vertex -23.7582 -6.3 91.283
      vertex -4.30431 -3.43702 80
    endloop
  endfacet
  facet normal -0.501708 -8.80073e-05 -0.865037
    outer loop
      vertex -23.7582 -6.3 91.283
      vertex -3 -5.69615 79.2435
      vertex 0.0544968 -6.3 77.472
    endloop
  endfacet
  facet normal -0.50171 2.91591e-06 -0.865036
    outer loop
      vertex -4.30429 0.00417108 80
      vertex -4.30431 -3.43702 80
      vertex -23.7582 -6.3 91.283
    endloop
  endfacet
  facet normal -0.501468 0 -0.865176
    outer loop
      vertex 0.00308323 4.69615 77.5018
      vertex 0.0544968 4.7 77.472
      vertex 0.0544968 4.69615 77.472
    endloop
  endfacet
  facet normal -0.501468 0 -0.865176
    outer loop
      vertex 0.0544968 4.7 77.472
      vertex 0.00308323 4.69615 77.5018
      vertex 0.00308323 4.7 77.5018
    endloop
  endfacet
  facet normal -0.495489 -0 -0.868614
    outer loop
      vertex 0.0544968 -5.69615 77.472
      vertex 0.0544968 -6.3 77.472
      vertex 0.0504648 -5.69615 77.4743
    endloop
  endfacet
  facet normal 0.500012 0 -0.866018
    outer loop
      vertex 23.8125 -6.3 91.1891
      vertex 4.43304 -3.21405 80
      vertex 23.8125 4.7 91.1891
    endloop
  endfacet
  facet normal 0.500012 2.26447e-06 -0.866018
    outer loop
      vertex 23.8125 -6.3 91.1891
      vertex 3 -5.69615 79.1726
      vertex 4.43304 -3.21405 80
    endloop
  endfacet
  facet normal 0.500011 -5.44317e-05 -0.866019
    outer loop
      vertex 0.0544968 -6.3 77.472
      vertex 3 -5.69615 79.1726
      vertex 23.8125 -6.3 91.1891
    endloop
  endfacet
  facet normal 0.500003 0 -0.866024
    outer loop
      vertex 3 -5.69615 79.1726
      vertex 0.0544968 -6.3 77.472
      vertex 0.0544968 -5.69615 77.472
    endloop
  endfacet
  facet normal 0.500012 0 -0.866018
    outer loop
      vertex 4.43304 2.21405 80
      vertex 23.8125 4.7 91.1891
      vertex 4.43304 -3.21405 80
    endloop
  endfacet
  facet normal 0.500012 -2.30215e-06 -0.866018
    outer loop
      vertex 3 4.69615 79.1726
      vertex 23.8125 4.7 91.1891
      vertex 4.43304 2.21405 80
    endloop
  endfacet
  facet normal 0.500003 0 -0.866024
    outer loop
      vertex 0.0544968 4.7 77.472
      vertex 3 4.69615 79.1726
      vertex 0.0544968 4.69615 77.472
    endloop
  endfacet
  facet normal 0.499993 0.00853698 -0.865987
    outer loop
      vertex 3 4.69615 79.1726
      vertex 0.0544968 4.7 77.472
      vertex 23.8125 4.7 91.1891
    endloop
  endfacet
  facet normal 0.999998 -0 0.001945
    outer loop
      vertex -18.9655 -6.3 116.503
      vertex -18.9224 1.4 94.3437
      vertex -18.9655 1.4 116.503
    endloop
  endfacet
  facet normal 0.999998 0 0.001945
    outer loop
      vertex -18.9224 1.4 94.3437
      vertex -18.9655 -6.3 116.503
      vertex -18.9224 -6.3 94.3437
    endloop
  endfacet
  facet normal 0.0644651 0 0.99792
    outer loop
      vertex -19.0429 1.4 116.508
      vertex -18.9655 -6.3 116.503
      vertex -18.9655 1.4 116.503
    endloop
  endfacet
  facet normal 0.0644651 0 0.99792
    outer loop
      vertex -18.9655 -6.3 116.503
      vertex -19.0429 1.4 116.508
      vertex -19.0429 -6.3 116.508
    endloop
  endfacet
  facet normal 0.507093 0 -0.861891
    outer loop
      vertex -19.0429 -6.3 116.508
      vertex -14.4198 1.4 119.228
      vertex -14.4198 -6.3 119.228
    endloop
  endfacet
  facet normal 0.507093 0 -0.861891
    outer loop
      vertex -14.4198 1.4 119.228
      vertex -19.0429 -6.3 116.508
      vertex -19.0429 1.4 116.508
    endloop
  endfacet
  facet normal -1 0 0
    outer loop
      vertex -14.4198 -6.3 114.001
      vertex -14.4198 1.4 119.228
      vertex -14.4198 1.4 114.001
    endloop
  endfacet
  facet normal -1 -0 0
    outer loop
      vertex -14.4198 1.4 119.228
      vertex -14.4198 -6.3 114.001
      vertex -14.4198 -6.3 119.228
    endloop
  endfacet
  facet normal 0.477052 0 -0.878875
    outer loop
      vertex -14.4198 -6.3 114.001
      vertex -11.5716 1.4 115.547
      vertex -11.5716 -6.3 115.547
    endloop
  endfacet
  facet normal 0.477052 0 -0.878875
    outer loop
      vertex -11.5716 1.4 115.547
      vertex -14.4198 -6.3 114.001
      vertex -14.4198 1.4 114.001
    endloop
  endfacet
  facet normal 0.999818 0 -0.0190621
    outer loop
      vertex -11.4704 -6.3 120.855
      vertex -11.5716 1.4 115.547
      vertex -11.4704 1.4 120.855
    endloop
  endfacet
  facet normal 0.999818 0 -0.0190621
    outer loop
      vertex -11.5716 1.4 115.547
      vertex -11.4704 -6.3 120.855
      vertex -11.5716 -6.3 115.547
    endloop
  endfacet
  facet normal 0.498248 0 -0.867035
    outer loop
      vertex -11.4704 -6.3 120.855
      vertex -7.24005 1.4 123.286
      vertex -7.24005 -6.3 123.286
    endloop
  endfacet
  facet normal 0.498248 0 -0.867035
    outer loop
      vertex -7.24005 1.4 123.286
      vertex -11.4704 -6.3 120.855
      vertex -11.4704 1.4 120.855
    endloop
  endfacet
  facet normal -0.99998 0 -0.00632655
    outer loop
      vertex -7.20395 -6.3 117.58
      vertex -7.24005 1.4 123.286
      vertex -7.20395 1.4 117.58
    endloop
  endfacet
  facet normal -0.99998 -0 -0.00632655
    outer loop
      vertex -7.24005 1.4 123.286
      vertex -7.20395 -6.3 117.58
      vertex -7.24005 -6.3 123.286
    endloop
  endfacet
  facet normal 0.393919 0 -0.919145
    outer loop
      vertex -7.20395 -6.3 117.58
      vertex -4.18928 1.4 118.872
      vertex -4.18928 -6.3 118.872
    endloop
  endfacet
  facet normal 0.393919 0 -0.919145
    outer loop
      vertex -4.18928 1.4 118.872
      vertex -7.20395 -6.3 117.58
      vertex -7.20395 1.4 117.58
    endloop
  endfacet
  facet normal 0.999999 -0 0.00168181
    outer loop
      vertex -4.19946 -6.3 124.925
      vertex -4.18928 1.4 118.872
      vertex -4.19946 1.4 124.925
    endloop
  endfacet
  facet normal 0.999999 0 0.00168181
    outer loop
      vertex -4.18928 1.4 118.872
      vertex -4.19946 -6.3 124.925
      vertex -4.18928 -6.3 118.872
    endloop
  endfacet
  facet normal 0.473647 0 -0.880715
    outer loop
      vertex -4.19946 -6.3 124.925
      vertex 0.181366 1.4 127.281
      vertex 0.181366 -6.3 127.281
    endloop
  endfacet
  facet normal 0.473647 0 -0.880715
    outer loop
      vertex 0.181366 1.4 127.281
      vertex -4.19946 -6.3 124.925
      vertex -4.19946 1.4 124.925
    endloop
  endfacet
  facet normal -0.471447 0 -0.881894
    outer loop
      vertex 0.181366 -6.3 127.281
      vertex 4.58853 1.4 124.925
      vertex 4.58853 -6.3 124.925
    endloop
  endfacet
  facet normal -0.471447 0 -0.881894
    outer loop
      vertex 4.58853 1.4 124.925
      vertex 0.181366 -6.3 127.281
      vertex 0.181366 1.4 127.281
    endloop
  endfacet
  facet normal -0.999999 0 0.0015513
    outer loop
      vertex 4.57914 -6.3 118.872
      vertex 4.58853 1.4 124.925
      vertex 4.57914 1.4 118.872
    endloop
  endfacet
  facet normal -0.999999 0 0.0015513
    outer loop
      vertex 4.58853 1.4 124.925
      vertex 4.57914 -6.3 118.872
      vertex 4.58853 -6.3 124.925
    endloop
  endfacet
  facet normal -0.395093 0 -0.918641
    outer loop
      vertex 4.57914 -6.3 118.872
      vertex 7.5832 1.4 117.58
      vertex 7.5832 -6.3 117.58
    endloop
  endfacet
  facet normal -0.395093 0 -0.918641
    outer loop
      vertex 7.5832 1.4 117.58
      vertex 4.57914 -6.3 118.872
      vertex 4.57914 1.4 118.872
    endloop
  endfacet
  facet normal 1 0 -0.000893173
    outer loop
      vertex 7.58825 -6.3 123.234
      vertex 7.5832 1.4 117.58
      vertex 7.58825 1.4 123.234
    endloop
  endfacet
  facet normal 1 0 -0.000893173
    outer loop
      vertex 7.5832 1.4 117.58
      vertex 7.58825 -6.3 123.234
      vertex 7.5832 -6.3 117.58
    endloop
  endfacet
  facet normal -0.501612 0 -0.865093
    outer loop
      vertex 7.58825 -6.3 123.234
      vertex 11.8567 1.4 120.759
      vertex 11.8567 -6.3 120.759
    endloop
  endfacet
  facet normal -0.501612 0 -0.865093
    outer loop
      vertex 11.8567 1.4 120.759
      vertex 7.58825 -6.3 123.234
      vertex 7.58825 1.4 123.234
    endloop
  endfacet
  facet normal -0.999928 0 -0.0120291
    outer loop
      vertex 11.9194 -6.3 115.547
      vertex 11.8567 1.4 120.759
      vertex 11.9194 1.4 115.547
    endloop
  endfacet
  facet normal -0.999928 -0 -0.0120291
    outer loop
      vertex 11.8567 1.4 120.759
      vertex 11.9194 -6.3 115.547
      vertex 11.8567 -6.3 120.759
    endloop
  endfacet
  facet normal -0.488027 0 -0.872829
    outer loop
      vertex 11.9194 -6.3 115.547
      vertex 14.6844 1.4 114.001
      vertex 14.6844 -6.3 114.001
    endloop
  endfacet
  facet normal -0.488027 0 -0.872829
    outer loop
      vertex 14.6844 1.4 114.001
      vertex 11.9194 -6.3 115.547
      vertex 11.9194 1.4 115.547
    endloop
  endfacet
  facet normal 1 -0 0
    outer loop
      vertex 14.6844 -6.3 119.158
      vertex 14.6844 1.4 114.001
      vertex 14.6844 1.4 119.158
    endloop
  endfacet
  facet normal 1 0 0
    outer loop
      vertex 14.6844 1.4 114.001
      vertex 14.6844 -6.3 119.158
      vertex 14.6844 -6.3 114.001
    endloop
  endfacet
  facet normal -0.498119 0 -0.867109
    outer loop
      vertex 14.6844 -6.3 119.158
      vertex 19.3601 1.4 116.472
      vertex 19.3601 -6.3 116.472
    endloop
  endfacet
  facet normal -0.498119 0 -0.867109
    outer loop
      vertex 19.3601 1.4 116.472
      vertex 14.6844 -6.3 119.158
      vertex 14.6844 1.4 119.158
    endloop
  endfacet
  facet normal -0.999997 0 -0.00227892
    outer loop
      vertex 19.4106 -6.3 94.3124
      vertex 19.3601 1.4 116.472
      vertex 19.4106 1.4 94.3124
    endloop
  endfacet
  facet normal -0.999997 -0 -0.00227892
    outer loop
      vertex 19.3601 1.4 116.472
      vertex 19.4106 -6.3 94.3124
      vertex 19.3601 -6.3 116.472
    endloop
  endfacet
  facet normal -0.500652 0 0.865649
    outer loop
      vertex 0.245528 1.4 83.2282
      vertex 19.4106 -6.3 94.3124
      vertex 19.4106 1.4 94.3124
    endloop
  endfacet
  facet normal -0.500652 0 0.865649
    outer loop
      vertex 19.4106 -6.3 94.3124
      vertex 0.245528 1.4 83.2282
      vertex 0.245528 -6.3 83.2282
    endloop
  endfacet
  facet normal 0.501654 0 0.865068
    outer loop
      vertex -18.9224 1.4 94.3437
      vertex 0.245528 -6.3 83.2282
      vertex 0.245528 1.4 83.2282
    endloop
  endfacet
  facet normal 0.501654 0 0.865068
    outer loop
      vertex 0.245528 -6.3 83.2282
      vertex -18.9224 1.4 94.3437
      vertex -18.9224 -6.3 94.3437
    endloop
  endfacet
  facet normal 0.483633 0 -0.875271
    outer loop
      vertex 2.07036 -6.3 90.0435
      vertex 13.8906 1.4 96.5748
      vertex 13.8906 -6.3 96.5748
    endloop
  endfacet
  facet normal 0.483633 0 -0.875271
    outer loop
      vertex 13.8906 1.4 96.5748
      vertex 2.07036 -6.3 90.0435
      vertex 2.07036 1.4 90.0435
    endloop
  endfacet
  facet normal 1 -0 0
    outer loop
      vertex 13.8906 -6.3 110.157
      vertex 13.8906 1.4 96.5748
      vertex 13.8906 1.4 110.157
    endloop
  endfacet
  facet normal 1 0 0
    outer loop
      vertex 13.8906 1.4 96.5748
      vertex 13.8906 -6.3 110.157
      vertex 13.8906 -6.3 96.5748
    endloop
  endfacet
  facet normal -0.484646 0 0.87471
    outer loop
      vertex 0.132285 1.4 102.534
      vertex 13.8906 -6.3 110.157
      vertex 13.8906 1.4 110.157
    endloop
  endfacet
  facet normal -0.484646 0 0.87471
    outer loop
      vertex 13.8906 -6.3 110.157
      vertex 0.132285 1.4 102.534
      vertex 0.132285 -6.3 102.534
    endloop
  endfacet
  facet normal 0.484647 0 0.87471
    outer loop
      vertex -13.626 1.4 110.157
      vertex 0.132285 -6.3 102.534
      vertex 0.132285 1.4 102.534
    endloop
  endfacet
  facet normal 0.484647 0 0.87471
    outer loop
      vertex 0.132285 -6.3 102.534
      vertex -13.626 1.4 110.157
      vertex -13.626 -6.3 110.157
    endloop
  endfacet
  facet normal -1 0 0
    outer loop
      vertex -13.626 -6.3 96.5748
      vertex -13.626 1.4 110.157
      vertex -13.626 1.4 96.5748
    endloop
  endfacet
  facet normal -1 -0 0
    outer loop
      vertex -13.626 1.4 110.157
      vertex -13.626 -6.3 96.5748
      vertex -13.626 -6.3 110.157
    endloop
  endfacet
  facet normal -0.48257 0 -0.875858
    outer loop
      vertex -13.626 -6.3 96.5748
      vertex -1.77178 1.4 90.0435
      vertex -1.77178 -6.3 90.0435
    endloop
  endfacet
  facet normal -0.48257 0 -0.875858
    outer loop
      vertex -1.77178 1.4 90.0435
      vertex -13.626 -6.3 96.5748
      vertex -13.626 1.4 96.5748
    endloop
  endfacet
  facet normal -0.468563 0 -0.88343
    outer loop
      vertex -1.77178 -6.3 90.0435
      vertex 0.115883 1.4 89.0423
      vertex 0.115883 -6.3 89.0423
    endloop
  endfacet
  facet normal -0.468563 0 -0.88343
    outer loop
      vertex 0.115883 1.4 89.0423
      vertex -1.77178 -6.3 90.0435
      vertex -1.77178 1.4 90.0435
    endloop
  endfacet
  facet normal 0.455921 0 -0.89002
    outer loop
      vertex 0.115883 -6.3 89.0423
      vertex 2.07036 1.4 90.0435
      vertex 2.07036 -6.3 90.0435
    endloop
  endfacet
  facet normal 0.455921 0 -0.89002
    outer loop
      vertex 2.07036 1.4 90.0435
      vertex 0.115883 -6.3 89.0423
      vertex 0.115883 1.4 89.0423
    endloop
  endfacet
  facet normal 1 -0 0
    outer loop
      vertex -9.6573 -6.3 103.361
      vertex -9.6573 1.4 98.597
      vertex -9.6573 1.4 103.361
    endloop
  endfacet
  facet normal 1 0 0
    outer loop
      vertex -9.6573 1.4 98.597
      vertex -9.6573 -6.3 103.361
      vertex -9.6573 -6.3 98.597
    endloop
  endfacet
  facet normal -0.477872 0 -0.87843
    outer loop
      vertex -9.6573 -6.3 103.361
      vertex 0.132285 1.4 98.0354
      vertex 0.132285 -6.3 98.0354
    endloop
  endfacet
  facet normal -0.477872 0 -0.87843
    outer loop
      vertex 0.132285 1.4 98.0354
      vertex -9.6573 -6.3 103.361
      vertex -9.6573 1.4 103.361
    endloop
  endfacet
  facet normal 0.477872 0 -0.878429
    outer loop
      vertex 0.132285 -6.3 98.0354
      vertex 9.92185 1.4 103.361
      vertex 9.92185 -6.3 103.361
    endloop
  endfacet
  facet normal 0.477872 0 -0.878429
    outer loop
      vertex 9.92185 1.4 103.361
      vertex 0.132285 -6.3 98.0354
      vertex 0.132285 1.4 98.0354
    endloop
  endfacet
  facet normal -1 0 0
    outer loop
      vertex 9.92185 -6.3 98.597
      vertex 9.92185 1.4 103.361
      vertex 9.92185 1.4 98.597
    endloop
  endfacet
  facet normal -1 -0 0
    outer loop
      vertex 9.92185 1.4 103.361
      vertex 9.92185 -6.3 98.597
      vertex 9.92185 -6.3 103.361
    endloop
  endfacet
  facet normal -0.474615 0 0.880193
    outer loop
      vertex 0.132285 1.4 93.3183
      vertex 9.92185 -6.3 98.597
      vertex 9.92185 1.4 98.597
    endloop
  endfacet
  facet normal -0.474615 0 0.880193
    outer loop
      vertex 9.92185 -6.3 98.597
      vertex 0.132285 1.4 93.3183
      vertex 0.132285 -6.3 93.3183
    endloop
  endfacet
  facet normal 0.474614 0 0.880194
    outer loop
      vertex -9.6573 1.4 98.597
      vertex 0.132285 -6.3 93.3183
      vertex 0.132285 1.4 93.3183
    endloop
  endfacet
  facet normal 0.474614 0 0.880194
    outer loop
      vertex 0.132285 -6.3 93.3183
      vertex -9.6573 1.4 98.597
      vertex -9.6573 -6.3 98.597
    endloop
  endfacet
  facet normal 0.5 0 0.866025
    outer loop
      vertex 0 4.7 132.5
      vertex 23.8157 1.4 118.75
      vertex 23.8157 4.7 118.75
    endloop
  endfacet
  facet normal 0.5 0 0.866025
    outer loop
      vertex 23.8157 1.4 118.75
      vertex 0 4.7 132.5
      vertex 0 1.4 132.5
    endloop
  endfacet
  facet normal -1 0 0
    outer loop
      vertex -23.8157 1.4 91.25
      vertex -23.8157 4.7 118.75
      vertex -23.8157 4.7 91.25
    endloop
  endfacet
  facet normal -1 -0 0
    outer loop
      vertex -23.8157 4.7 118.75
      vertex -23.8157 1.4 91.25
      vertex -23.8157 1.4 118.75
    endloop
  endfacet
  facet normal -0.552355 0 0.833609
    outer loop
      vertex -0.00301838 4.7 132.498
      vertex 0 1.4 132.5
      vertex 0 4.7 132.5
    endloop
  endfacet
  facet normal -0.552355 0 0.833609
    outer loop
      vertex 0 1.4 132.5
      vertex -0.00301838 4.7 132.498
      vertex -0.00301838 1.4 132.498
    endloop
  endfacet
  facet normal -0.518302 0 0.855198
    outer loop
      vertex -23.8157 4.7 118.75
      vertex -23.8124 1.4 118.752
      vertex -23.8124 4.7 118.752
    endloop
  endfacet
  facet normal -0.518302 0 0.855198
    outer loop
      vertex -23.8124 1.4 118.752
      vertex -23.8157 4.7 118.75
      vertex -23.8157 1.4 118.75
    endloop
  endfacet
  facet normal 0 -1 0
    outer loop
      vertex -23.8157 1.4 118.75
      vertex -23.7582 1.4 91.283
      vertex -23.8124 1.4 118.752
    endloop
  endfacet
  facet normal 0 -1 0
    outer loop
      vertex -23.8157 1.4 91.25
      vertex -23.7582 1.4 91.283
      vertex -23.8157 1.4 118.75
    endloop
  endfacet
  facet normal 0 -1 0
    outer loop
      vertex -4.33013 1.4 80
      vertex -23.7582 1.4 91.283
      vertex -23.8157 1.4 91.25
    endloop
  endfacet
  facet normal 0 -1 0
    outer loop
      vertex -23.7582 1.4 91.283
      vertex -4.33013 1.4 80
      vertex -4.30429 1.4 80
    endloop
  endfacet
  facet normal 0 -1 0
    outer loop
      vertex 23.758 1.4 118.717
      vertex 0 1.4 132.5
      vertex -0.00301838 1.4 132.498
    endloop
  endfacet
  facet normal 0 -1 0
    outer loop
      vertex 0 1.4 132.5
      vertex 23.758 1.4 118.717
      vertex 23.8157 1.4 118.75
    endloop
  endfacet
  facet normal 0 -1 0
    outer loop
      vertex 23.758 1.4 118.717
      vertex 23.8157 1.4 91.25
      vertex 23.8157 1.4 118.75
    endloop
  endfacet
  facet normal -0 -1 0
    outer loop
      vertex 23.8157 1.4 91.25
      vertex 23.758 1.4 118.717
      vertex 23.8124 1.4 91.2481
    endloop
  endfacet
  facet normal 0 -1 -0
    outer loop
      vertex 7.5832 1.4 117.58
      vertex 0.132285 1.4 102.534
      vertex 13.8906 1.4 110.157
    endloop
  endfacet
  facet normal 0 -1 0
    outer loop
      vertex -18.9655 1.4 116.503
      vertex -14.4198 1.4 119.228
      vertex -19.0429 1.4 116.508
    endloop
  endfacet
  facet normal 0 -1 0
    outer loop
      vertex -18.9655 1.4 116.503
      vertex -14.4198 1.4 114.001
      vertex -14.4198 1.4 119.228
    endloop
  endfacet
  facet normal 0 -1 0
    outer loop
      vertex 7.5832 1.4 117.58
      vertex 13.8906 1.4 110.157
      vertex 11.9194 1.4 115.547
    endloop
  endfacet
  facet normal 0 -1 0
    outer loop
      vertex -18.9655 1.4 116.503
      vertex -13.626 1.4 110.157
      vertex -14.4198 1.4 114.001
    endloop
  endfacet
  facet normal 0 -1 0
    outer loop
      vertex -18.9224 1.4 94.3437
      vertex -13.626 1.4 110.157
      vertex -18.9655 1.4 116.503
    endloop
  endfacet
  facet normal 0 -1 -0
    outer loop
      vertex -13.626 1.4 110.157
      vertex -18.9224 1.4 94.3437
      vertex -13.626 1.4 96.5748
    endloop
  endfacet
  facet normal 0 -1 0
    outer loop
      vertex -18.9224 1.4 94.3437
      vertex -1.77178 1.4 90.0435
      vertex -13.626 1.4 96.5748
    endloop
  endfacet
  facet normal 0 -1 0
    outer loop
      vertex 0.245528 1.4 83.2282
      vertex -1.77178 1.4 90.0435
      vertex -18.9224 1.4 94.3437
    endloop
  endfacet
  facet normal 0 -1 0
    outer loop
      vertex -1.77178 1.4 90.0435
      vertex 0.245528 1.4 83.2282
      vertex 0.115883 1.4 89.0423
    endloop
  endfacet
  facet normal 0 -1 0
    outer loop
      vertex -11.4704 1.4 120.855
      vertex -7.20395 1.4 117.58
      vertex -7.24005 1.4 123.286
    endloop
  endfacet
  facet normal 0 -1 0
    outer loop
      vertex -13.626 1.4 110.157
      vertex -7.20395 1.4 117.58
      vertex -11.5716 1.4 115.547
    endloop
  endfacet
  facet normal 0 -1 0
    outer loop
      vertex -11.5716 1.4 115.547
      vertex -7.20395 1.4 117.58
      vertex -11.4704 1.4 120.855
    endloop
  endfacet
  facet normal 0 -1 0
    outer loop
      vertex -4.19946 1.4 124.925
      vertex 4.58853 1.4 124.925
      vertex 0.181366 1.4 127.281
    endloop
  endfacet
  facet normal 0 -1 0
    outer loop
      vertex -4.18928 1.4 118.872
      vertex 4.58853 1.4 124.925
      vertex -4.19946 1.4 124.925
    endloop
  endfacet
  facet normal 0 -1 0
    outer loop
      vertex -4.18928 1.4 118.872
      vertex 4.57914 1.4 118.872
      vertex 4.58853 1.4 124.925
    endloop
  endfacet
  facet normal 0 -1 0
    outer loop
      vertex 0.132285 1.4 102.534
      vertex -4.18928 1.4 118.872
      vertex -7.20395 1.4 117.58
    endloop
  endfacet
  facet normal 0 -1 0
    outer loop
      vertex -4.18928 1.4 118.872
      vertex 0.132285 1.4 102.534
      vertex 4.57914 1.4 118.872
    endloop
  endfacet
  facet normal 0 -1 0
    outer loop
      vertex 7.5832 1.4 117.58
      vertex 11.8567 1.4 120.759
      vertex 7.58825 1.4 123.234
    endloop
  endfacet
  facet normal 0 -1 0
    outer loop
      vertex 7.5832 1.4 117.58
      vertex 11.9194 1.4 115.547
      vertex 11.8567 1.4 120.759
    endloop
  endfacet
  facet normal 0 -1 0
    outer loop
      vertex 0.132285 1.4 102.534
      vertex -7.20395 1.4 117.58
      vertex -13.626 1.4 110.157
    endloop
  endfacet
  facet normal 0 -1 0
    outer loop
      vertex -13.626 1.4 110.157
      vertex -11.5716 1.4 115.547
      vertex -14.4198 1.4 114.001
    endloop
  endfacet
  facet normal 0 -1 -0
    outer loop
      vertex 4.57914 1.4 118.872
      vertex 0.132285 1.4 102.534
      vertex 7.5832 1.4 117.58
    endloop
  endfacet
  facet normal 0 -1 0
    outer loop
      vertex 14.6844 1.4 114.001
      vertex 19.3601 1.4 116.472
      vertex 14.6844 1.4 119.158
    endloop
  endfacet
  facet normal 0 -1 0
    outer loop
      vertex 11.9194 1.4 115.547
      vertex 13.8906 1.4 110.157
      vertex 14.6844 1.4 114.001
    endloop
  endfacet
  facet normal 0 -1 0
    outer loop
      vertex 13.8906 1.4 110.157
      vertex 19.3601 1.4 116.472
      vertex 14.6844 1.4 114.001
    endloop
  endfacet
  facet normal 0 -1 0
    outer loop
      vertex 19.4106 1.4 94.3124
      vertex 13.8906 1.4 110.157
      vertex 13.8906 1.4 96.5748
    endloop
  endfacet
  facet normal 0 -1 0
    outer loop
      vertex 13.8906 1.4 110.157
      vertex 19.4106 1.4 94.3124
      vertex 19.3601 1.4 116.472
    endloop
  endfacet
  facet normal 0 -1 0
    outer loop
      vertex 2.07036 1.4 90.0435
      vertex 19.4106 1.4 94.3124
      vertex 13.8906 1.4 96.5748
    endloop
  endfacet
  facet normal 0 -1 0
    outer loop
      vertex 0.245528 1.4 83.2282
      vertex 2.07036 1.4 90.0435
      vertex 0.115883 1.4 89.0423
    endloop
  endfacet
  facet normal 0 -1 -0
    outer loop
      vertex 2.07036 1.4 90.0435
      vertex 0.245528 1.4 83.2282
      vertex 19.4106 1.4 94.3124
    endloop
  endfacet
  facet normal 0 -1 0
    outer loop
      vertex -9.6573 1.4 98.597
      vertex 0.132285 1.4 98.0354
      vertex -9.6573 1.4 103.361
    endloop
  endfacet
  facet normal -0 -1 -0
    outer loop
      vertex 0.132285 1.4 98.0354
      vertex -9.6573 1.4 98.597
      vertex 0.132285 1.4 93.3183
    endloop
  endfacet
  facet normal 0 -1 0
    outer loop
      vertex 0.132285 1.4 98.0354
      vertex 9.92185 1.4 98.597
      vertex 9.92185 1.4 103.361
    endloop
  endfacet
  facet normal 0 -1 0
    outer loop
      vertex 9.92185 1.4 98.597
      vertex 0.132285 1.4 98.0354
      vertex 0.132285 1.4 93.3183
    endloop
  endfacet
  facet normal 1 -0 0
    outer loop
      vertex 23.8157 1.4 118.75
      vertex 23.8157 4.7 91.25
      vertex 23.8157 4.7 118.75
    endloop
  endfacet
  facet normal 1 0 0
    outer loop
      vertex 23.8157 4.7 91.25
      vertex 23.8157 1.4 118.75
      vertex 23.8157 1.4 91.25
    endloop
  endfacet
  facet normal 0.504174 0 -0.863602
    outer loop
      vertex 0 4.69615 77.5
      vertex 0.00308323 4.7 77.5018
      vertex 0.00308323 4.69615 77.5018
    endloop
  endfacet
  facet normal 0.504174 0 -0.863602
    outer loop
      vertex 0.00308323 4.7 77.5018
      vertex 0 4.69615 77.5
      vertex 0 4.7 77.5
    endloop
  endfacet
  facet normal 0.498964 0 -0.866622
    outer loop
      vertex 23.8124 1.4 91.2481
      vertex 23.8157 4.7 91.25
      vertex 23.8157 1.4 91.25
    endloop
  endfacet
  facet normal 0.498964 0 -0.866622
    outer loop
      vertex 23.8157 4.7 91.25
      vertex 23.8124 1.4 91.2481
      vertex 23.8124 4.7 91.2481
    endloop
  endfacet
  facet normal -0.5 0 -0.866025
    outer loop
      vertex -4.33013 1.4 80
      vertex -23.8157 1.4 91.25
      vertex -4.33013 2.3923 80
    endloop
  endfacet
  facet normal -0.499989 0 -0.866032
    outer loop
      vertex -3 4.69615 79.232
      vertex 0 4.7 77.5
      vertex 0 4.69615 77.5
    endloop
  endfacet
  facet normal -0.5 -0 -0.866025
    outer loop
      vertex -23.8157 4.7 91.25
      vertex -4.33013 2.3923 80
      vertex -23.8157 1.4 91.25
    endloop
  endfacet
  facet normal -0.499967 0.0114052 -0.865969
    outer loop
      vertex -3 4.69615 79.232
      vertex -23.8157 4.7 91.25
      vertex 0 4.7 77.5
    endloop
  endfacet
  facet normal -0.500002 -1.72489e-05 -0.866025
    outer loop
      vertex -4.33013 2.3923 80
      vertex -23.8157 4.7 91.25
      vertex -3 4.69615 79.232
    endloop
  endfacet
  facet normal 0.866025 -0.500001 3.54955e-06
    outer loop
      vertex 3 -5.69615 79.1726
      vertex 6 -0.5 80
      vertex 4.43304 -3.21405 80
    endloop
  endfacet
  facet normal 0.866025 -0.5 0
    outer loop
      vertex 6 -0.5 80
      vertex 3 -5.69615 79.1726
      vertex 6 -0.5 10
    endloop
  endfacet
  facet normal 0.866025 -0.5 0
    outer loop
      vertex 6 -0.5 10
      vertex 3 -5.69615 79.1726
      vertex 3 -5.69615 10
    endloop
  endfacet
  facet normal 0 -1 -0
    outer loop
      vertex 0.0504648 -5.69615 77.4743
      vertex -3 -5.69615 10
      vertex 0.0544968 -5.69615 77.472
    endloop
  endfacet
  facet normal 0 -1 0
    outer loop
      vertex -3 -5.69615 10
      vertex 0.0504648 -5.69615 77.4743
      vertex -3 -5.69615 79.2435
    endloop
  endfacet
  facet normal 0 -1 0
    outer loop
      vertex 3 -5.69615 10
      vertex 0.0544968 -5.69615 77.472
      vertex -3 -5.69615 10
    endloop
  endfacet
  facet normal 0 -1 0
    outer loop
      vertex 0.0544968 -5.69615 77.472
      vertex 3 -5.69615 10
      vertex 3 -5.69615 79.1726
    endloop
  endfacet
  facet normal -0.866025 -0.5 0
    outer loop
      vertex -3 -5.69615 79.2435
      vertex -6 -0.5 80
      vertex -6 -0.5 10
    endloop
  endfacet
  facet normal -0.866025 -0.5 -0
    outer loop
      vertex -3 -5.69615 79.2435
      vertex -6 -0.5 10
      vertex -3 -5.69615 10
    endloop
  endfacet
  facet normal -0.866025 -0.5 -1.58444e-07
    outer loop
      vertex -6 -0.5 80
      vertex -3 -5.69615 79.2435
      vertex -4.30431 -3.43702 80
    endloop
  endfacet
  facet normal -0.866025 0.5 0
    outer loop
      vertex -6 -0.5 10
      vertex -3 4.69615 79.232
      vertex -3 4.69615 10
    endloop
  endfacet
  facet normal -0.866025 0.5 0
    outer loop
      vertex -6 -0.5 80
      vertex -3 4.69615 79.232
      vertex -6 -0.5 10
    endloop
  endfacet
  facet normal -0.866025 0.5 -1.94918e-06
    outer loop
      vertex -3 4.69615 79.232
      vertex -6 -0.5 80
      vertex -4.33013 2.3923 80
    endloop
  endfacet
  facet normal 0 0 -1
    outer loop
      vertex 3 -5.69615 10
      vertex 3 4.69615 10
      vertex 6 -0.5 10
    endloop
  endfacet
  facet normal 0 0 -1
    outer loop
      vertex -3 -5.69615 10
      vertex 3 4.69615 10
      vertex 3 -5.69615 10
    endloop
  endfacet
  facet normal 0 0 -1
    outer loop
      vertex -3 -5.69615 10
      vertex -3 4.69615 10
      vertex 3 4.69615 10
    endloop
  endfacet
  facet normal 0 -0 -1
    outer loop
      vertex -3 4.69615 10
      vertex -3 -5.69615 10
      vertex -6 -0.5 10
    endloop
  endfacet
  facet normal 0 0 1
    outer loop
      vertex 6 -0.5 80
      vertex 4.43304 2.21405 80
      vertex 4.43304 -3.21405 80
    endloop
  endfacet
  facet normal 0 0 1
    outer loop
      vertex -4.33013 2.3923 80
      vertex -6 -0.5 80
      vertex -4.33013 1.4 80
    endloop
  endfacet
  facet normal -0 0 1
    outer loop
      vertex -4.33013 1.4 80
      vertex -4.30429 0.00417108 80
      vertex -4.30429 1.4 80
    endloop
  endfacet
  facet normal 0 0 1
    outer loop
      vertex -4.30429 0.00417108 80
      vertex -4.33013 1.4 80
      vertex -6 -0.5 80
    endloop
  endfacet
  facet normal 0 0 1
    outer loop
      vertex -4.30429 0.00417108 80
      vertex -6 -0.5 80
      vertex -4.30431 -3.43702 80
    endloop
  endfacet
  facet normal 0 1 0
    outer loop
      vertex 3 4.69615 79.1726
      vertex 3 4.69615 10
      vertex 0.0544968 4.69615 77.472
    endloop
  endfacet
  facet normal 0 1 0
    outer loop
      vertex 0.00308323 4.69615 77.5018
      vertex 0.0544968 4.69615 77.472
      vertex 0 4.69615 77.5
    endloop
  endfacet
  facet normal 0 1 0
    outer loop
      vertex -3 4.69615 10
      vertex 0.0544968 4.69615 77.472
      vertex 3 4.69615 10
    endloop
  endfacet
  facet normal 0 1 0
    outer loop
      vertex 0.0544968 4.69615 77.472
      vertex -3 4.69615 10
      vertex 0 4.69615 77.5
    endloop
  endfacet
  facet normal 0 1 0
    outer loop
      vertex 0 4.69615 77.5
      vertex -3 4.69615 10
      vertex -3 4.69615 79.232
    endloop
  endfacet
  facet normal 0.866025 0.500001 3.54955e-06
    outer loop
      vertex 6 -0.5 80
      vertex 3 4.69615 79.1726
      vertex 4.43304 2.21405 80
    endloop
  endfacet
  facet normal 0.866025 0.5 0
    outer loop
      vertex 3 4.69615 79.1726
      vertex 6 -0.5 80
      vertex 6 -0.5 10
    endloop
  endfacet
  facet normal 0.866025 0.5 0
    outer loop
      vertex 3 4.69615 79.1726
      vertex 6 -0.5 10
      vertex 3 4.69615 10
    endloop
  endfacet
endsolid OpenSCAD_Model
